[
    {
        "id": 1,
        "community": "Ice Cream Lovers",
        "content": "Best Ice Cream Spots in Brno",
        "details": "Discover the best ice cream spots in Brno this weekend! We'll be visiting some of the top-rated shops, trying unique flavors, and sharing our thoughts.",
        "location": "City Center",
        "type": "event",
        "tags": ["ice-cream", "food tasting", "weekend activity"],
        "rating": 4.8,
        "posted_by": "john_doe",
        "comments": [
            {
                "user": "jane_doe",
                "comment": "I love Scoop Heaven! Can't wait to try more flavors."
            },
            {
                "user": "mike_smith",
                "comment": "This sounds amazing! Count me in."
            }
        ]
    },
    {
        "id": 2,
        "community": "Book Enthusiasts",
        "content": "Book Reading: The Night Circus",
        "details": "Join us for a magical evening at the Moravian Library as we read and discuss 'The Night Circus' by Erin Morgenstern. It's an enchanting story you won't want to miss.",
        "location": "Veveří",
        "type": "event",
        "tags": ["book reading", "library", "evening activity"],
        "rating": 4.7,
        "posted_by": "jane_doe",
        "comments": [
            {
                "user": "john_doe",
                "comment": "This is one of my favorite books. Looking forward to it!"
            },
            {
                "user": "mike_smith",
                "comment": "I've heard great things about this book. Excited to join."
            }
        ]
    },
    {
        "id": 3,
        "community": "Travel Buffs",
        "content": "Hiking Adventure to Moravian Karst",
        "details": "Join us for an exciting hiking trip to the Moravian Karst. We'll explore the beautiful landscapes, visit the Punkva Caves, and enjoy a day out in nature.",
        "location": "Blansko",
        "type": "event",
        "tags": ["hiking", "nature", "outdoor activity"],
        "rating": 4.9,
        "posted_by": "mike_smith",
        "comments": [
            {
                "user": "john_doe",
                "comment": "The Punkva Caves are amazing. Can't wait for this hike!"
            },
            {
                "user": "jane_doe",
                "comment": "I love hiking! This will be a great adventure."
            }
        ]
    },
    {
        "id": 4,
        "community": "Music Fans",
        "content": "Music Festival at Freedom Square",
        "details": "Join us for a fantastic music festival at Freedom Square this Saturday. Enjoy performances by local bands and artists.",
        "location": "Freedom Square",
        "type": "event",
        "tags": ["music", "festival", "live performances"],
        "rating": 4.9,
        "posted_by": "emma_wilson",
        "comments": [
            {
                "user": "olivia_taylor",
                "comment": "Love live music! Can't wait."
            },
            {
                "user": "liam_moore",
                "comment": "Sounds like a great time!"
            }
        ]
    },
    {
        "id": 5,
        "community": "Art Enthusiasts",
        "content": "Local Art Exhibition at House of Arts",
        "details": "Don't miss the local art exhibition at the House of Arts. Discover works by talented local artists and enjoy an evening of culture.",
        "location": "House of Arts",
        "type": "event",
        "tags": ["art", "exhibition", "local artists"],
        "rating": 4.8,
        "posted_by": "lucas_garcia",
        "comments": [
            {
                "user": "mia_white",
                "comment": "Excited to see the new art pieces."
            },
            {
                "user": "ethan_harris",
                "comment": "Love supporting local artists."
            }
        ]
    },
    {
        "id": 6,
        "community": "Wine Lovers",
        "content": "Wine Tasting Event at Špilberk Castle",
        "details": "Join us for an exquisite wine tasting event at Špilberk Castle. Sample a selection of fine wines and enjoy the historic atmosphere.",
        "location": "Špilberk Castle",
        "type": "event",
        "tags": ["wine tasting", "fine wines"],
        "rating": 4.9,
        "posted_by": "isabella_lee",
        "comments": [
            {
                "user": "logan_thompson",
                "comment": "Can't wait to taste the wines!"
            },
            {
                "user": "jack_martinez",
                "comment": "This event sounds fantastic."
            }
        ]
    },
    {
        "id": 7,
        "community": "Tech Geeks",
        "content": "Tech Meetup at Impact Hub",
        "details": "Join us for a tech meetup at Impact Hub Brno. Network with professionals and enthusiasts, and learn about the latest trends in technology.",
        "location": "Impact Hub",
        "type": "event",
        "tags": ["tech", "meetup", "networking"],
        "rating": 4.7,
        "posted_by": "alex_hernandez",
        "comments": [
            {
                "user": "daniel_lopez",
                "comment": "Looking forward to the discussions."
            },
            {
                "user": "grace_robinson",
                "comment": "Great opportunity to network."
            }
        ]
    },
    {
        "id": 8,
        "community": "Pet Lovers",
        "content": "Dog Walking Group in Kraví hora",
        "details": "Join our dog walking group every Sunday morning at Kraví hora park. It's a great way to exercise your pets and meet other pet owners.",
        "location": "Kraví hora",
        "type": "event",
        "tags": ["dogs", "walking", "pets"],
        "rating": 4.8,
        "posted_by": "chloe_walker",
        "comments": [
            {
                "user": "amelia_hall",
                "comment": "My dog and I will be there!"
            },
            {
                "user": "aiden_allen",
                "comment": "Great way to meet fellow dog lovers."
            }
        ]
    },
    {
        "id": 9,
        "community": "Gardeners",
        "content": "Gardening Workshop at Botanická zahrada",
        "details": "Learn the best gardening tips and tricks at our workshop at Botanická zahrada. Perfect for both beginner and experienced gardeners.",
        "location": "Botanická zahrada",
        "type": "event",
        "tags": ["gardening", "workshop"],
        "rating": 4.7,
        "posted_by": "elizabeth_scott",
        "comments": [
            {
                "user": "michael_king",
                "comment": "Can't wait to improve my garden."
            },
            {
                "user": "abigail_adams",
                "comment": "Looking forward to learning new techniques."
            }
        ]
    },
    {
        "id": 10,
        "community": "Music Lovers",
        "content": "Live Jazz Night at Lokal U Caipla",
        "details": "Enjoy a night of live jazz music at Lokal U Caipla. Featuring performances by local jazz bands.",
        "location": "City Center",
        "type": "event",
        "tags": ["jazz", "live music", "Lokal U Caipla"],
        "rating": 4.8,
        "posted_by": "sophia_hill",
        "comments": [
            {
                "user": "james_young",
                "comment": "Love jazz music. This will be fun."
            },
            {
                "user": "david_clark",
                "comment": "Can't wait for the performances."
            }
        ]
    },
    {
        "id": 11,
        "community": "Fitness Enthusiasts",
        "content": "Fitness Bootcamp at Lužánky Park",
        "details": "Join us for a high-energy fitness bootcamp at Lužánky Park. All fitness levels are welcome.",
        "location": "Lužánky Park",
        "type": "event",
        "tags": ["fitness", "bootcamp"],
        "rating": 4.7,
        "posted_by": "john_doe",
        "comments": [
            {
                "user": "jane_doe",
                "comment": "Looking forward to getting fit!"
            },
            {
                "user": "mike_smith",
                "comment": "Great way to start the day."
            }
        ]
    },
    {
        "id": 12,
        "community": "Foodies",
        "content": "Best Coffee Shops in Brno",
        "details": "I'm on the hunt for the best coffee shops in Brno. Any recommendations?",
        "location": "",
        "type": "post",
        "tags": ["coffee", "foodies", "recommendations"],
        "likes": 25,
        "posted_by": "emma_wilson",
        "comments": [
            {
                "user": "olivia_taylor",
                "comment": "Check out Cafe Atlas, it's my favorite!"
            },
            {
                "user": "liam_moore",
                "comment": "Try Kafec Brno, they have amazing brews."
            }
        ]
    },
    {
        "id": 13,
        "community": "Tech Geeks",
        "content": "Best Coding Resources?",
        "details": "What are some of the best online resources for learning coding? I'm interested in both free and paid options.",
        "location": "",
        "type": "post",
        "tags": ["coding", "resources", "education"],
        "likes": 18,
        "posted_by": "alex_hernandez",
        "comments": [
            {
                "user": "daniel_lopez",
                "comment": "FreeCodeCamp is an excellent free resource."
            },
            {
                "user": "grace_robinson",
                "comment": "I highly recommend Codecademy for interactive learning."
            }
        ]
    },
    {
        "id": 14,
        "community": "Pet Lovers",
        "content": "Best Vet Clinics in Brno?",
        "details": "I'm new to Brno and looking for recommendations for a good vet clinic. Any suggestions?",
        "location": "",
        "type": "post",
        "tags": ["pets", "vet", "recommendations"],
        "likes": 20,
        "posted_by": "chloe_walker",
        "comments": [
            {
                "user": "amelia_hall",
                "comment": "We go to Vetcentrum, they're fantastic!"
            },
            {
                "user": "aiden_allen",
                "comment": "Try Veterinary Clinic ZOO, very professional."
            }
        ]
    },
    {
        "id": 15,
        "community": "Gardeners",
        "content": "Indoor Plant Care Tips",
        "details": "I've recently started growing indoor plants. Any tips on how to keep them healthy and thriving?",
        "location": "",
        "type": "post",
        "tags": ["gardening", "indoor plants", "tips"],
        "likes": 22,
        "posted_by": "elizabeth_scott",
        "comments": [
            {
                "user": "michael_king",
                "comment": "Make sure they get enough light, and don't overwater them."
            },
            {
                "user": "abigail_adams",
                "comment": "Use a good quality potting mix and check for pests regularly."
            }
        ]
    },
    {
        "id": 16,
        "community": "Fitness Enthusiasts",
        "content": "Best Running Trails in Brno",
        "details": "Looking for some good running trails in Brno. Any recommendations?",
        "location": "",
        "type": "post",
        "tags": ["running", "trails", "fitness"],
        "likes": 19,
        "posted_by": "john_doe",
        "comments": [
            {
                "user": "jane_doe",
                "comment": "Try the trails around Brno Dam, they are beautiful."
            },
            {
                "user": "mike_smith",
                "comment": "I love running in Lužánky Park, lots of greenery."
            }
        ]
    },
    {
        "id": 17,
        "community": "Foodies",
        "content": "Good Restaurants in Brno?",
        "details": "I'm looking for some good restaurant recommendations in Brno. Any favorites?",
        "location": "",
        "type": "post",
        "tags": ["restaurants", "foodies", "recommendations"],
        "likes": 24,
        "posted_by": "noah_jackson",
        "comments": [
            {
                "user": "ava_martin",
                "comment": "You should try Borgo Agnese, it's fantastic!"
            },
            {
                "user": "isabella_lee",
                "comment": "I love going to Stopkova Plzeňská Pivnice."
            }
        ]
    },
    {
        "id": 18,
        "community": "Travel Buffs",
        "content": "Best Places to Visit in Brno",
        "details": "I'm planning a trip to Brno and looking for must-visit places. Any recommendations?",
        "location": "",
        "type": "post",
        "tags": ["travel", "places", "recommendations"],
        "likes": 30,
        "posted_by": "mia_white",
        "comments": [
            {
                "user": "ethan_harris",
                "comment": "You should definitely visit Špilberk Castle."
            },
            {
                "user": "logan_thompson",
                "comment": "Check out the Brno Technical Museum, it's really interesting."
            }
        ]
    },
    {
        "id": 19,
        "community": "History Buffs",
        "content": "Interesting Historical Facts about Brno",
        "details": "I'm a history enthusiast and looking for interesting historical facts about Brno. Anyone have any to share?",
        "location": "",
        "type": "post",
        "tags": ["history", "facts", "Brno"],
        "likes": 16,
        "posted_by": "lucas_garcia",
        "comments": [
            {
                "user": "jack_martinez",
                "comment": "Did you know that Brno was the capital of Moravia until 1949?"
            },
            {
                "user": "alex_hernandez",
                "comment": "The Brno Ossuary is the second largest in Europe."
            }
        ]
    },
    {
        "id": 20,
        "community": "Newcomers in Brno",
        "content": "Tips for Newcomers to Brno",
        "details": "I'm new to Brno and looking for tips to settle in. Any advice?",
        "location": "",
        "type": "post",
        "tags": ["newcomers", "tips", "Brno"],
        "likes": 27,
        "posted_by": "daniel_lopez",
        "comments": [
            {
                "user": "ella_lewis",
                "comment": "Check out the local markets, they have fresh produce and a great atmosphere."
            },
            {
                "user": "grace_robinson",
                "comment": "Join some local clubs or groups to meet new people."
            }
        ]
    },
    {
        "id": 21,
        "community": "Community Engagement in Brno",
        "content": "How to Get Involved in Local Activities?",
        "details": "I'm interested in getting more involved in local activities and events. Any suggestions on where to start?",
        "location": "",
        "type": "post",
        "tags": ["community", "activities", "events"],
        "likes": 22,
        "posted_by": "chloe_walker",
        "comments": [
            {
                "user": "amelia_hall",
                "comment": "Check out the community center, they always have something going on."
            },
            {
                "user": "aiden_allen",
                "comment": "Volunteer at local events, it's a great way to meet people."
            }
        ]
    },
    {
        "id": 22,
        "community": "Music Fans",
        "content": "Open Mic Night at Lokal U Caipla",
        "details": "Showcase your musical talent at the open mic night at Lokal U Caipla. Everyone is welcome to perform or just enjoy the music.",
        "location": "City Center",
        "type": "event",
        "tags": ["music", "open mic", "Lokal U Caipla"],
        "rating": 4.7,
        "posted_by": "sophia_hill",
        "comments": [
            {
                "user": "james_young",
                "comment": "Can't wait to perform!"
            },
            {
                "user": "david_clark",
                "comment": "Looking forward to hearing some great music."
            }
        ]
    },
    {
        "id": 23,
        "community": "Fitness Enthusiasts",
        "content": "Yoga in the Park",
        "details": "Join us for a relaxing yoga session in Lužánky Park. All levels are welcome.",
        "location": "Lužánky Park",
        "type": "event",
        "tags": ["yoga", "outdoor"],
        "rating": 4.9,
        "posted_by": "john_doe",
        "comments": [
            {
                "user": "jane_doe",
                "comment": "Can't wait to relax and unwind."
            },
            {
                "user": "mike_smith",
                "comment": "This sounds like a perfect way to spend the morning."
            }
        ]
    },
    {
        "id": 24,
        "community": "Tech Geeks",
        "content": "Hackathon at Impact Hub",
        "details": "Participate in our 24-hour hackathon at Impact Hub. Form a team, build something cool, and win prizes.",
        "location": "Impact Hub",
        "type": "event",
        "tags": ["hackathon", "tech"],
        "rating": 4.8,
        "posted_by": "alex_hernandez",
        "comments": [
            {
                "user": "daniel_lopez",
                "comment": "Excited to see what everyone creates."
            },
            {
                "user": "grace_robinson",
                "comment": "Looking forward to the challenge."
            }
        ]
    },
    {
        "id": 25,
        "community": "Wine Lovers",
        "content": "Wine and Paint Night",
        "details": "Enjoy a relaxing evening of wine and painting at Špilberk Castle. No experience necessary, just come and have fun.",
        "location": "Špilberk Castle",
        "type": "event",
        "tags": ["wine", "painting"],
        "rating": 4.9,
        "posted_by": "isabella_lee",
        "comments": [
            {
                "user": "logan_thompson",
                "comment": "This sounds like a lot of fun!"
            },
            {
                "user": "jack_martinez",
                "comment": "Can't wait to see everyone's paintings."
            }
        ]
    },
    {
        "id": 26,
        "community": "Art Enthusiasts",
        "content": "Sketching in the Park",
        "details": "Bring your sketchbook and join us for a relaxing afternoon of sketching in Lužánky Park.",
        "location": "Lužánky Park",
        "type": "event",
        "tags": ["sketching", "art"],
        "rating": 4.7,
        "posted_by": "lucas_garcia",
        "comments": [
            {
                "user": "mia_white",
                "comment": "Looking forward to getting creative."
            },
            {
                "user": "ethan_harris",
                "comment": "Great way to spend an afternoon."
            }
        ]
    },
    {
        "id": 27,
        "community": "Pet Lovers",
        "content": "Pet Adoption Fair",
        "details": "Find your new best friend at our pet adoption fair. Meet adoptable pets from local shelters and learn about responsible pet ownership.",
        "location": "Freedom Square",
        "type": "event",
        "tags": ["pet adoption", "pets"],
        "rating": 4.8,
        "posted_by": "chloe_walker",
        "comments": [
            {
                "user": "amelia_hall",
                "comment": "Can't wait to meet all the pets."
            },
            {
                "user": "aiden_allen",
                "comment": "Thinking about adopting a dog."
            }
        ]
    },
    {
        "id": 28,
        "community": "Travel Buffs",
        "content": "Day Trip to Vienna",
        "details": "Join us for a day trip to Vienna. Explore the city's beautiful architecture, museums, and cafes.",
        "location": "",
        "type": "event",
        "tags": ["day trip", "Vienna", "travel"],
        "rating": 4.9,
        "posted_by": "mike_smith",
        "comments": [
            {
                "user": "john_doe",
                "comment": "Vienna is beautiful. Can't wait!"
            },
            {
                "user": "jane_doe",
                "comment": "This will be an amazing trip."
            }
        ]
    },
    {
        "id": 29,
        "community": "Fitness Enthusiasts",
        "content": "Rock Climbing at Klajda",
        "details": "Try out rock climbing at Klajda. All levels welcome, equipment provided.",
        "location": "Klajda",
        "type": "event",
        "tags": ["rock climbing", "fitness"],
        "rating": 4.8,
        "posted_by": "john_doe",
        "comments": [
            {
                "user": "mike_smith",
                "comment": "Always wanted to try rock climbing."
            },
            {
                "user": "jane_doe",
                "comment": "Sounds like a fun challenge!"
            }
        ]
    },
    {
        "id": 30,
        "community": "Tech Geeks",
        "content": "AI Workshop at Impact Hub",
        "details": "Learn about the latest advancements in AI at our workshop at Impact Hub. No prior experience needed.",
        "location": "Impact Hub",
        "type": "event",
        "tags": ["AI", "workshop"],
        "rating": 4.7,
        "posted_by": "alex_hernandez",
        "comments": [
            {
                "user": "daniel_lopez",
                "comment": "Excited to learn about AI."
            },
            {
                "user": "grace_robinson",
                "comment": "Looking forward to the workshop."
            }
        ]
    }
]
